Tutorial: Bayesian models in R
…
Analysis

To begin, we loaded the necessary libraries and read in the data. The data was downloaded from the GitHub repository accompanying the tutorial and was saved locally as data/cuckoo_nesting_data.xlsx.

# The packages are actually loaded in the 'setup' chunk for the Rmd.
library(rethinking)
library(readxl)
library(tidyverse)

data <- read_excel("data/cuckoo_nesting_data.xlsx") %>%
    as_tibble() %>%
    janitor::clean_names()

## # A tibble: 1,776 x 14
##     year group_id_code egg_number date_found          min_date_laid      
##    <dbl> <chr>              <dbl> <dttm>              <dttm>             
##  1  2007 NTE II                 4 2007-07-09 00:00:00 NA                 
##  2  2007 NTE II                 5 2007-07-11 00:00:00 2007-07-10 00:00:00
##  3  2007 NTE II                 6 2007-07-11 00:00:00 2007-07-10 00:00:00
##  4  2007 STH I                  1 2007-07-09 00:00:00 2007-07-07 00:00:00
##  5  2007 STH I                  2 2007-07-09 00:00:00 2007-07-07 00:00:00
##  6  2007 STH I                  3 2007-07-10 00:00:00 2007-07-09 00:00:00
##  7  2007 STH I                  4 2007-07-10 00:00:00 2007-07-09 00:00:00
##  8  2007 STH I                  5 2007-07-12 00:00:00 2007-07-11 00:00:00
##  9  2007 STH I                  6 2007-07-12 00:00:00 2007-07-11 00:00:00
## 10  2007 STH I                  7 2007-07-14 00:00:00 2007-07-13 00:00:00
## #  with 1,766 more rows, and 9 more variables: mass <chr>, length <chr>,
## #   width <chr>, fate <chr>, date_fate_recorded <chr>,
## #   female_genotype_coded <dbl>, parasitic <dbl>, dna_source <chr>,
## #   notes <chr>
…
